module future-appointment-service

go 1.17

require (
	github.com/go-chi/chi v1.5.4
	github.com/go-chi/render v1.0.1
	github.com/hashicorp/go-multierror v1.1.1
	github.com/spf13/cobra v1.5.0
	gopkg.in/yaml.v2 v2.4.0
)

require (
	github.com/davecgh/go-spew v1.1.1 // indirect
	github.com/hashicorp/errwrap v1.0.0 // indirect
	github.com/inconshreveable/mousetrap v1.0.0 // indirect
	github.com/pmezard/go-difflib v1.0.0 // indirect
	github.com/spf13/pflag v1.0.5 // indirect
	github.com/stretchr/testify v1.8.0 // indirect
	gopkg.in/yaml.v3 v3.0.1 // indirect
)
